<svg width="39" height="37" viewBox="0 0 39 37" fill="none" xmlns="http://www.w3.org/2000/svg">
<path d="M13 30.6205H0.672445C0.301107 30.6205 0 30.3348 0 29.9825V7.01699C0 6.66469 0.301107 6.37903 0.672445 6.37903H13V30.6205Z" fill="#73AF00"/>
<path d="M26.0005 6.37939H13.0002V30.6209H26.0005V6.37939Z" fill="#F5F5F5"/>
<path d="M38.3275 30.6204H25.9999V6.37909H38.3275C38.6989 6.37909 39 6.66476 39 7.01705V29.9826C39 30.3349 38.6989 30.6204 38.3275 30.6204Z" fill="#FF4B55"/>
<path d="M20.6597 19.0704L19.5 19.6206V20.1708H20.0799L20.6597 19.0704Z" fill="#FFD250"/>
<path d="M19.4999 21.546C19.3397 21.546 19.21 21.423 19.21 21.2709V20.1707C19.21 20.0186 19.3397 19.8956 19.4999 19.8956C19.6602 19.8956 19.7899 20.0186 19.7899 20.1707V21.2709C19.7899 21.423 19.6602 21.546 19.4999 21.546Z" fill="#00C3A0"/>
<path d="M19.5 20.4458C18.3611 20.4458 17.2614 20.0289 16.4033 19.2719C16.286 19.1685 16.2793 18.9944 16.3882 18.8833C16.498 18.7724 16.6813 18.7664 16.7978 18.869C17.5484 19.5312 18.5081 19.8957 19.4999 19.8957C20.4917 19.8957 21.4513 19.5312 22.2019 18.869C22.3189 18.7662 22.5021 18.7718 22.6116 18.8833C22.7206 18.9945 22.7138 19.1686 22.5965 19.2719C21.7385 20.029 20.6388 20.4458 19.5 20.4458Z" fill="#00C3A0"/>
<path d="M19.5 21.5461C18.7567 21.5461 18.0367 21.34 17.4178 20.95L17.7388 20.4917C18.7853 21.1514 20.2146 21.1514 21.2611 20.4917L21.5821 20.95C20.9633 21.3401 20.2433 21.5461 19.5 21.5461Z" fill="#00AADC"/>
<path d="M19.0409 17.8325L18.4007 18.7725L18.2919 19.0818L19.9591 18.7151L19.0409 17.8325Z" fill="#732D37"/>
<path d="M17.7255 19.3842C16.959 19.3842 16.039 18.7723 15.795 17.4088L16.367 17.3169C16.5697 18.4508 17.3049 18.8349 17.7464 18.8339C17.8818 18.8303 18.023 18.786 18.0341 18.6953C18.0472 18.5867 18.0503 18.561 17.747 18.4637C17.5822 18.4108 17.3954 18.3509 17.2643 18.2086C16.7339 17.634 17.4519 17.0259 17.7969 16.7336C17.8578 16.682 17.883 16.6382 17.8765 16.6216C17.8576 16.5746 17.7438 16.5034 17.6155 16.5034C17.2471 16.5034 16.9676 16.306 16.8864 15.9885C16.802 15.6597 16.9615 15.3132 17.265 15.1644L17.5312 15.6532C17.4601 15.6881 17.4319 15.7875 17.45 15.8585C17.4571 15.887 17.4743 15.9533 17.6156 15.9533C17.9707 15.9533 18.3085 16.1521 18.4183 16.4255C18.4653 16.5421 18.5361 16.8451 18.1833 17.1441C17.8025 17.4668 17.5746 17.7096 17.7009 17.8463C17.7294 17.8771 17.8521 17.9167 17.933 17.9425C18.1941 18.0263 18.68 18.1821 18.6104 18.7583C18.5667 19.1206 18.2259 19.372 17.7627 19.384C17.7502 19.384 17.7377 19.3842 17.7255 19.3842Z" fill="#AAD264"/>
<path d="M20.0799 16.3198C20.0799 16.3198 20.6598 15.2195 19.5 14.6694C19.5 14.6694 23.5591 14.1192 22.9792 19.0705L22.979 19.0703C22.5984 18.7814 22.0334 18.2535 21.8316 17.8327L20.0799 16.8699V16.3198Z" fill="#874150"/>
<path d="M19.5 17.42L22.3993 19.0704C22.3993 19.0704 22.3993 19.0704 21.2396 19.6205L19.5 17.9702V17.42Z" fill="#732D37"/>
<path d="M18.3403 15.7696C18.6606 15.7696 18.9202 16.0159 18.9202 16.3197L18.9196 16.3203C18.5736 16.6485 18.488 17.1498 18.7067 17.565L18.8377 17.8137C18.8923 17.9173 18.9643 18.012 19.0506 18.0939L20.6599 19.6207V18.8604C20.6599 17.9132 20.4275 16.979 19.981 16.1318C19.6863 15.5727 19.0839 15.2195 18.425 15.2195H18.3404V15.7697H18.3403V15.7696Z" fill="#783C46"/>
<path d="M18.3403 15.2194L17.7604 15.7696V16.3197C17.7604 16.3197 18.4502 15.988 18.6827 15.8822C18.8451 15.8084 18.8156 15.6337 18.7224 15.5495C18.6498 15.4841 18.3403 15.2194 18.3403 15.2194Z" fill="#FFD250"/>
<path d="M19.5 22.6463C16.7821 22.6463 14.571 20.5487 14.571 17.9702H15.1509C15.1509 20.2454 17.1018 22.0962 19.5001 22.0962C21.8983 22.0962 23.8492 20.2454 23.8492 17.9702H24.4291C24.4289 20.5487 22.2179 22.6463 19.5 22.6463Z" fill="#AAD264"/>
<path d="M15.1825 19.976C15.3999 19.976 15.576 19.8088 15.576 19.6026C15.576 19.3965 15.3999 19.2293 15.1825 19.2293C14.9652 19.2293 14.789 19.3965 14.789 19.6026C14.789 19.8088 14.9652 19.976 15.1825 19.976Z" fill="#FFE15A"/>
<path d="M16.0524 21.294C16.2697 21.294 16.4459 21.1269 16.4459 20.9207C16.4459 20.7145 16.2697 20.5474 16.0524 20.5474C15.8351 20.5474 15.6589 20.7145 15.6589 20.9207C15.6589 21.1269 15.8351 21.294 16.0524 21.294Z" fill="#FFE15A"/>
<path d="M17.4654 22.2906C17.6827 22.2906 17.8589 22.1234 17.8589 21.9173C17.8589 21.7111 17.6827 21.5439 17.4654 21.5439C17.2481 21.5439 17.0719 21.7111 17.0719 21.9173C17.0719 22.1234 17.2481 22.2906 17.4654 22.2906Z" fill="#FFE15A"/>
<path d="M23.8593 19.976C24.0766 19.976 24.2528 19.8088 24.2528 19.6026C24.2528 19.3965 24.0766 19.2293 23.8593 19.2293C23.642 19.2293 23.4658 19.3965 23.4658 19.6026C23.4658 19.8088 23.642 19.976 23.8593 19.976Z" fill="#FFE15A"/>
<path d="M22.9886 21.294C23.2059 21.294 23.3821 21.1269 23.3821 20.9207C23.3821 20.7145 23.2059 20.5474 22.9886 20.5474C22.7713 20.5474 22.5951 20.7145 22.5951 20.9207C22.5951 21.1269 22.7713 21.294 22.9886 21.294Z" fill="#FFE15A"/>
<path d="M21.5757 22.2906C21.793 22.2906 21.9692 22.1234 21.9692 21.9173C21.9692 21.7111 21.793 21.5439 21.5757 21.5439C21.3584 21.5439 21.1822 21.7111 21.1822 21.9173C21.1822 22.1234 21.3584 22.2906 21.5757 22.2906Z" fill="#FFE15A"/>
<path d="M19.79 21.8211H19.2101C18.8898 21.8211 18.6302 21.5747 18.6302 21.2709C18.6302 20.9671 18.8898 20.7208 19.2101 20.7208H19.79C20.1102 20.7208 20.3698 20.9671 20.3698 21.2709C20.3698 21.5748 20.1102 21.8211 19.79 21.8211Z" fill="#FFB478"/>
<path d="M21.8316 17.8326C22.0249 18.3712 22.4357 18.8641 22.979 19.0702L22.9792 19.0704C23.5591 14.1193 19.5 14.6694 19.5 14.6694C22.3993 14.6694 21.8316 17.8326 21.8316 17.8326Z" fill="#9B4B5A"/>
</svg>
